…
```r
offspring <- read_excel(here("data/CE.LIQ.FLOW.062_Tidydata.xlsx"), sheet = 1)

# we want to see if the data for the experimental conditions have been imported correctly
offspring %>% select(c("expType", "RawData", "compName", "compConcentration"))
```

```
## # A tibble: 360 x 4
##    expType    RawData compName                   compConcentration
##    <chr>        <dbl> <chr>                      <chr>            
##  1 experiment      44 2,6-diisopropylnaphthalene 4.99             
##  2 experiment      37 2,6-diisopropylnaphthalene 4.99             
##  3 experiment      45 2,6-diisopropylnaphthalene 4.99             
##  4 experiment      47 2,6-diisopropylnaphthalene 4.99             
##  5 experiment      41 2,6-diisopropylnaphthalene 4.99             
##  6 experiment      35 2,6-diisopropylnaphthalene 4.99             
##  7 experiment      41 2,6-diisopropylnaphthalene 4.99             
##  8 experiment      36 2,6-diisopropylnaphthalene 4.99             
##  9 experiment      40 2,6-diisopropylnaphthalene 4.99             
## 10 experiment      38 2,6-diisopropylnaphthalene 4.99             
## # ... with 350 more rows
```
…
offspring_tidy <- offspring
offspring_tidy$compConcentration <- as.numeric(offspring_tidy$compConcentration)

# one of the values in compconcentration is accidentally classified as a character in excel and has now turned into a NA value, we will change this value manually.

character_placement <- which(is.na(offspring_tidy$compConcentration))
character_value <- offspring$compConcentration[character_placement] %>% str_replace(",", ".") %>% parse_number()
offspring_tidy$compConcentration[character_placement] <- character_value

# lets check one last time if the data types are correct.
offspring %>% select(c("RawData", "compName", "compConcentration"))
```

```
## # A tibble: 360 x 3
##    RawData compName                   compConcentration
##      <int> <fct>                      <chr>            
##  1      44 2,6-diisopropylnaphthalene 4.99             
##  2      37 2,6-diisopropylnaphthalene 4.99             
##  3      45 2,6-diisopropylnaphthalene 4.99             
##  4      47 2,6-diisopropylnaphthalene 4.99             
##  5      41 2,6-diisopropylnaphthalene 4.99             
##  6      35 2,6-diisopropylnaphthalene 4.99             
##  7      41 2,6-diisopropylnaphthalene 4.99             
##  8      36 2,6-diisopropylnaphthalene 4.99             
##  9      40 2,6-diisopropylnaphthalene 4.99             
## 10      38 2,6-diisopropylnaphthalene 4.99             
## # ... with 350 more rows
```
…
